<svg width="51" height="61" viewBox="0 0 51 61" fill="none" xmlns="http://www.w3.org/2000/svg">
<rect x="2" y="14" width="14" height="44" rx="1" stroke="#252525" stroke-width="4" stroke-linejoin="round"/>
<path d="M2 21.998L16 21.998" stroke="#252525" stroke-width="4" stroke-linejoin="round"/>
<path d="M2 49.998H16" stroke="#252525" stroke-width="4" stroke-linejoin="round"/>
<rect x="16" y="2" width="14" height="56" rx="1" stroke="#252525" stroke-width="4" stroke-linejoin="round"/>
<path d="M16 9.99805L30 9.99805" stroke="#252525" stroke-width="4" stroke-linejoin="round"/>
<path d="M16 49.998H30" stroke="#252525" stroke-width="4" stroke-linejoin="round"/>
<path d="M33.0001 23.0009L32.684 21.026C31.5933 21.2006 30.8507 22.2263 31.0253 23.317L33.0001 23.0009ZM43.2486 21.3604L45.2234 21.0443C45.1396 20.5206 44.8511 20.0515 44.4215 19.7405C43.9918 19.4294 43.4562 19.3017 42.9325 19.3856L43.2486 21.3604ZM38.2914 56.058L36.3166 56.3741C36.42 57.0202 36.833 57.5749 37.4223 57.8593C38.0117 58.1436 38.7028 58.1217 39.273 57.8005L38.2914 56.058ZM48.563 54.5619L48.1193 56.5121C48.7671 56.6595 49.4458 56.4756 49.9305 56.0213C50.4153 55.5671 50.6428 54.9018 50.5378 54.2458L48.563 54.5619ZM33.3162 24.9757L43.5647 23.3353L42.9325 19.3856L32.684 21.026L33.3162 24.9757ZM40.2663 55.7419L34.975 22.6847L31.0253 23.317L36.3166 56.3741L40.2663 55.7419ZM39.273 57.8005C40.5386 57.0877 41.9339 56.5941 43.4033 56.3589L42.771 52.4092C40.8286 52.7201 38.9833 53.3728 37.3099 54.3154L39.273 57.8005ZM43.4033 56.3589C44.9906 56.1049 46.59 56.1642 48.1193 56.5121L49.0067 52.6118C46.9847 52.1518 44.8695 52.0733 42.771 52.4092L43.4033 56.3589ZM41.2737 21.6765L46.5881 54.878L50.5378 54.2458L45.2234 21.0443L41.2737 21.6765Z" fill="#252525"/>
<path d="M33 23L38.6603 58.3625M43.2484 21.3596L48.9088 56.722" stroke="#252525" stroke-width="4" stroke-linecap="round" stroke-linejoin="round"/>
</svg>
